…
# Get a list of all cases in the patients event log:
patients %>%
  cases()
#> # A tibble: 500 × 10
#>   patient trace_…¹ numbe…² start_timestamp     complete_timestamp  trace trace…³
#>   <chr>      <int>   <int> <dttm>              <dttm>              <chr>   <dbl>
#> 1 1              6       6 2017-01-02 11:41:53 2017-01-09 19:45:45 Regi…       4
#> 2 10             5       5 2017-01-06 05:58:54 2017-01-10 15:41:59 Regi…       7
#> 3 100            5       5 2017-04-11 16:34:31 2017-04-22 09:58:07 Regi…       7
#> 4 101            5       5 2017-04-16 06:38:58 2017-04-23 02:55:23 Regi…       7
#> 5 102            5       5 2017-04-16 06:38:58 2017-04-22 10:50:04 Regi…       7
#> # … with 495 more rows, 3 more variables: duration <drtn>,
#> #   first_activity <fct>, last_activity <fct>, and abbreviated variable names
#> #   ¹​trace_length, ²​number_of_activities, ³​trace_id
```
